1 10 20
100 200 125
201 210 89
900 1000 174
74 551 144
197 636 144
273 550 144
206 688 145
18 493 144
166 686 145
67 580 144
245 665 145
197 576 144
290 600 144
290 487 144
17 521 144
160 477 144
288 512 144
240 505 144
98 617 144
276 517 144
260 545 144
25 666 145
176 630 144
281 585 144
250 526 144
222 456 144
6 666 145
153 432 144
77 594 144
138 503 144
41 677 145
279 432 144
167 538 144
218 588 144
289 608 144
13 403 144
230 568 144
285 573 144
158 516 144
142 657 145
136 462 144
246 458 144
266 462 144
92 669 145
134 631 144
234 527 144
244 604 144
221 504 144
116 501 144
125 510 144
171 478 144
41 615 144
227 579 144
108 474 144
247 404 144
111 663 145
42 659 145
15 544 144
33 534 144
63 658 145
59 586 144
2 444 144
8 573 144
20 482 144
28 463 144
289 520 144
253 620 144
117 533 144
188 533 144
64 583 144
86 653 145
66 440 144
219 524 144
84 488 144
102 455 144
2 505 144
106 688 145
140 519 144
273 425 144
203 559 144
73 468 144
279 417 144
199 404 144
77 587 144
61 567 144
219 547 144
179 424 144
111 510 144
130 546 144
4 474 144
14 617 144
24 451 144
63 448 144
10 581 144
168 498 144
187 539 144
113 488 144
12 535 144
209 623 144
256 525 144
1 572 144
135 650 145
59 493 144
135197 264380 443
351523 323758 441
52715 71724 335
333358 71573 443
279777 297902 389
191042 285998 443
376588 24396 443
292483 264220 407
145405 194719 383
229652 287367 443
290408 252418 407
143454 262604 443
343041 166491 443
390875 215271 443
193989 159291 370
360566 160163 443
334652 119766 443
246038 110802 443
372867 21940 443
16662 224657 386
3816 313936 443
335832 391842 441
234363 4292 443
106728 149265 375
31306 337580 443
57343 356587 443
288297 102440 443
73691 357252 443
194891 213163 373
203677 372006 443
160954 40572 383
284719 118396 443
45738 253369 443
155323 311486 443
78995 104987 341
179602 276972 443
249260 144657 443
381612 280268 441
66424 370701 443
160421 305300 443
115690 183443 383
118399 223117 386
332296 351883 441
200196 93887 383
359079 214046 443
357457 177447 443
126486 276209 443
15677 139818 354
210082 206960 311
222094 327744 443
94923 160719 383
375481 21307 443
175773 175479 272
206256 288245 443
224076 90130 386
262111 188585 443
78732 78745 139
327535 14655 443
365153 115148 443
301912 199656 443
331411 326298 353
27738 38367 324
304329 287231 389
187080 139759 383
236806 37024 443
263691 158022 443
322215 399073 441
323980 157772 443
302319 263933 407
268726 28389 443
12785 147535 375
111006 110713 230
206389 336987 443
15016 340910 443
27667 291105 443
275094 366335 441
69832 35812 340
251986 341514 407
237631 288189 407
371481 232915 441
356786 89091 443
134271 121872 344
110207 50003 354
325871 347923 441
169976 157504 370
323578 380679 441
11833 299853 443
354962 88187 443
118577 47863 354
390684 282474 441
36350 151268 375
183231 86196 383
305577 9776 443
241235 183227 443
176355 187045 365
13467 171302 383
74017 4115 340
61647 354439 443
375882 21021 443
350760 384261 423
